[
    {
      "uuid": "85231b1f-2a48-3d11-9869-25d9eec47f52",
      "name": "nideKer"
    },
    {
      "uuid": "2839d300-856d-38fc-a667-ab706f9932d2",
      "name": "rich-art"
    },
    {
      "uuid": "10a18942-14fb-3a97-bad9-e12c769685c0",
      "name": "AHMEDMAHMED228"
    },
    {
      "uuid": "bc2dc98d-75ea-3450-a0d0-35b0c2c3f450",
      "name": "AnderX"
    },
    {
      "uuid": "94bda177-5744-3bf0-b72e-a2a118c1c9b3",
      "name": "nidekere"
    },
    {
      "uuid": "94bda177-5744-3bf0-b72e-a2a118c1c9b3",
      "name": "TheFedoYano12"
    },
    {
      "uuid": "844ab57f-4058-383c-99f5-d0308dc4c398",
      "name": "KirNeDodikR"
    },
    {
      "uuid": "41f3b0fb-7435-3d11-9e4a-be6290d34f08",
      "name": "nidekere1"
    },
    {
      "uuid": "737507d2-828f-3ab1-843f-6b4a1c9c2383",
      "name": "TheFedoYano"
    },
    {
      "uuid": "03b98b44-9bee-3bfb-8caa-1b18836a8a5f",
      "name": "alekspisika"
    },
    {
      "uuid": "c57a0c06-c91d-326c-8815-23ab11491b5f",
      "name": "AnderX1109"
    }
  ]